Visual Analytics - OECD PISA Global Education
…
Show the code

summary(SCH_table$TOTAL_STUDENT)

   Min. 1st Qu.  Median    Mean 3rd Qu.    Max. 
   5.00   36.00   37.00   40.28   40.00   60.00 

The data structure can be obtained using str(), glimpse() or head(). Due to the large number of variables and display purposes, we will display up to 20 variables.

Show the code

head(stu_qqq_SGP, n = 30)

# A tibble: 30 × 1,279
   CNT   CNTRYID CNTSCHID CNTSTUID CYC   NatCen STRATUM SUBNATIO REGION  OECD
   <chr>   <dbl>    <dbl>    <dbl> <chr> <chr>  <chr>   <chr>     <dbl> <dbl>
 1 SGP       702 70200052 70200001 08MS  070200 SGP01   7020000   70200     0
 2 SGP       702 70200134 70200002 08MS  070200 SGP01   7020000   70200     0
 3 SGP       702 70200112 70200003 08MS  070200 SGP01   7020000   70200     0
 4 SGP       702 70200004 70200004 08MS  070200 SGP01   7020000   70200     0
 5 SGP       702 70200152 70200005 08MS  070200 SGP01   7020000   70200     0
 6 SGP       702 70200043 70200006 08MS  070200 SGP01   7020000   70200     0
 7 SGP       702 70200049 70200007 08MS  070200 SGP01   7020000   70200     0
 8 SGP       702 70200107 70200008 08MS  070200 SGP01   7020000   70200     0
 9 SGP       702 70200012 70200009 08MS  070200 SGP01   7020000   70200     0
10 SGP       702 70200061 70200010 08MS  070200 SGP01   7020000   70200     0
# ℹ 20 more rows
# ℹ 1,269 more variables: ADMINMODE <dbl>, LANGTEST_QQQ <dbl>,
#   LANGTEST_COG <dbl>, LANGTEST_PAQ <dbl>, Option_CT <dbl>, Option_FL <dbl>,
#   Option_ICTQ <dbl>, Option_WBQ <dbl>, Option_PQ <dbl>, Option_TQ <dbl>,
#   Option_UH <dbl>, BOOKID <dbl>, ST001D01T <dbl>, ST003D02T <dbl>,
#   ST003D03T <dbl>, ST004D01T <dbl>, ST250Q01JA <dbl>, ST250Q02JA <dbl>,
#   ST250Q03JA <dbl>, ST250Q04JA <dbl>, ST250Q05JA <dbl>, ST250D06JA <chr>, …
…
